^D:\UNIVERSITAT\UPC\CUARTO\VJ\JOC-2D\2DGAME\LOSGOONIES\02-BUBBLE\GAME.CPP
/c /I..\..\..\LIBS\JSON /I"..\..\..\LIBS\SIMPLE OPENGL IMAGE LIBRARY\SRC" /I..\..\..\LIBS\FREEGLUT\INCLUDE /I"..\..\..\LIBS\GLEW-1.13.0\INCLUDE" /I..\..\..\LIBS\GLM /ZI /JMC /nologo /W3 /WX- /diagnostics:column /Od /Oy- /D WIN32 /D _DEBUG /D _CONSOLE /D _LIB /D _UNICODE /D UNICODE /Gm- /EHsc /RTC1 /MDd /GS /fp:precise /Zc:wchar_t /Zc:forScope /Zc:inline /Fo"DEBUG\\" /Fd"DEBUG\VC142.PDB" /Gd /TP /analyze- /FC D:\UNIVERSITAT\UPC\CUARTO\VJ\JOC-2D\2DGAME\LOSGOONIES\02-BUBBLE\GAME.CPP
^D:\UNIVERSITAT\UPC\CUARTO\VJ\JOC-2D\2DGAME\LOSGOONIES\02-BUBBLE\MAIN.CPP
/c /I..\..\..\LIBS\JSON /I"..\..\..\LIBS\SIMPLE OPENGL IMAGE LIBRARY\SRC" /I..\..\..\LIBS\FREEGLUT\INCLUDE /I"..\..\..\LIBS\GLEW-1.13.0\INCLUDE" /I..\..\..\LIBS\GLM /ZI /JMC /nologo /W3 /WX- /diagnostics:column /Od /Oy- /D WIN32 /D _DEBUG /D _CONSOLE /D _LIB /D _UNICODE /D UNICODE /Gm- /EHsc /RTC1 /MDd /GS /fp:precise /Zc:wchar_t /Zc:forScope /Zc:inline /Fo"DEBUG\\" /Fd"DEBUG\VC142.PDB" /Gd /TP /analyze- /FC D:\UNIVERSITAT\UPC\CUARTO\VJ\JOC-2D\2DGAME\LOSGOONIES\02-BUBBLE\MAIN.CPP
^D:\UNIVERSITAT\UPC\CUARTO\VJ\JOC-2D\2DGAME\LOSGOONIES\02-BUBBLE\PLAYER.CPP
/c /I..\..\..\LIBS\JSON /I"..\..\..\LIBS\SIMPLE OPENGL IMAGE LIBRARY\SRC" /I..\..\..\LIBS\FREEGLUT\INCLUDE /I"..\..\..\LIBS\GLEW-1.13.0\INCLUDE" /I..\..\..\LIBS\GLM /ZI /JMC /nologo /W3 /WX- /diagnostics:column /Od /Oy- /D WIN32 /D _DEBUG /D _CONSOLE /D _LIB /D _UNICODE /D UNICODE /Gm- /EHsc /RTC1 /MDd /GS /fp:precise /Zc:wchar_t /Zc:forScope /Zc:inline /Fo"DEBUG\\" /Fd"DEBUG\VC142.PDB" /Gd /TP /analyze- /FC D:\UNIVERSITAT\UPC\CUARTO\VJ\JOC-2D\2DGAME\LOSGOONIES\02-BUBBLE\PLAYER.CPP
^D:\UNIVERSITAT\UPC\CUARTO\VJ\JOC-2D\2DGAME\LOSGOONIES\02-BUBBLE\SCENE.CPP
/c /I..\..\..\LIBS\JSON /I"..\..\..\LIBS\SIMPLE OPENGL IMAGE LIBRARY\SRC" /I..\..\..\LIBS\FREEGLUT\INCLUDE /I"..\..\..\LIBS\GLEW-1.13.0\INCLUDE" /I..\..\..\LIBS\GLM /ZI /JMC /nologo /W3 /WX- /diagnostics:column /Od /Oy- /D WIN32 /D _DEBUG /D _CONSOLE /D _LIB /D _UNICODE /D UNICODE /Gm- /EHsc /RTC1 /MDd /GS /fp:precise /Zc:wchar_t /Zc:forScope /Zc:inline /Fo"DEBUG\\" /Fd"DEBUG\VC142.PDB" /Gd /TP /analyze- /FC D:\UNIVERSITAT\UPC\CUARTO\VJ\JOC-2D\2DGAME\LOSGOONIES\02-BUBBLE\SCENE.CPP
^D:\UNIVERSITAT\UPC\CUARTO\VJ\JOC-2D\2DGAME\LOSGOONIES\02-BUBBLE\SHADER.CPP
/c /I..\..\..\LIBS\JSON /I"..\..\..\LIBS\SIMPLE OPENGL IMAGE LIBRARY\SRC" /I..\..\..\LIBS\FREEGLUT\INCLUDE /I"..\..\..\LIBS\GLEW-1.13.0\INCLUDE" /I..\..\..\LIBS\GLM /ZI /JMC /nologo /W3 /WX- /diagnostics:column /Od /Oy- /D WIN32 /D _DEBUG /D _CONSOLE /D _LIB /D _UNICODE /D UNICODE /Gm- /EHsc /RTC1 /MDd /GS /fp:precise /Zc:wchar_t /Zc:forScope /Zc:inline /Fo"DEBUG\\" /Fd"DEBUG\VC142.PDB" /Gd /TP /analyze- /FC D:\UNIVERSITAT\UPC\CUARTO\VJ\JOC-2D\2DGAME\LOSGOONIES\02-BUBBLE\SHADER.CPP
^D:\UNIVERSITAT\UPC\CUARTO\VJ\JOC-2D\2DGAME\LOSGOONIES\02-BUBBLE\SHADERPROGRAM.CPP
/c /I..\..\..\LIBS\JSON /I"..\..\..\LIBS\SIMPLE OPENGL IMAGE LIBRARY\SRC" /I..\..\..\LIBS\FREEGLUT\INCLUDE /I"..\..\..\LIBS\GLEW-1.13.0\INCLUDE" /I..\..\..\LIBS\GLM /ZI /JMC /nologo /W3 /WX- /diagnostics:column /Od /Oy- /D WIN32 /D _DEBUG /D _CONSOLE /D _LIB /D _UNICODE /D UNICODE /Gm- /EHsc /RTC1 /MDd /GS /fp:precise /Zc:wchar_t /Zc:forScope /Zc:inline /Fo"DEBUG\\" /Fd"DEBUG\VC142.PDB" /Gd /TP /analyze- /FC D:\UNIVERSITAT\UPC\CUARTO\VJ\JOC-2D\2DGAME\LOSGOONIES\02-BUBBLE\SHADERPROGRAM.CPP
^D:\UNIVERSITAT\UPC\CUARTO\VJ\JOC-2D\2DGAME\LOSGOONIES\02-BUBBLE\SPRITE.CPP
/c /I..\..\..\LIBS\JSON /I"..\..\..\LIBS\SIMPLE OPENGL IMAGE LIBRARY\SRC" /I..\..\..\LIBS\FREEGLUT\INCLUDE /I"..\..\..\LIBS\GLEW-1.13.0\INCLUDE" /I..\..\..\LIBS\GLM /ZI /JMC /nologo /W3 /WX- /diagnostics:column /Od /Oy- /D WIN32 /D _DEBUG /D _CONSOLE /D _LIB /D _UNICODE /D UNICODE /Gm- /EHsc /RTC1 /MDd /GS /fp:precise /Zc:wchar_t /Zc:forScope /Zc:inline /Fo"DEBUG\\" /Fd"DEBUG\VC142.PDB" /Gd /TP /analyze- /FC D:\UNIVERSITAT\UPC\CUARTO\VJ\JOC-2D\2DGAME\LOSGOONIES\02-BUBBLE\SPRITE.CPP
^D:\UNIVERSITAT\UPC\CUARTO\VJ\JOC-2D\2DGAME\LOSGOONIES\02-BUBBLE\TEXTURE.CPP
/c /I..\..\..\LIBS\JSON /I"..\..\..\LIBS\SIMPLE OPENGL IMAGE LIBRARY\SRC" /I..\..\..\LIBS\FREEGLUT\INCLUDE /I"..\..\..\LIBS\GLEW-1.13.0\INCLUDE" /I..\..\..\LIBS\GLM /ZI /JMC /nologo /W3 /WX- /diagnostics:column /Od /Oy- /D WIN32 /D _DEBUG /D _CONSOLE /D _LIB /D _UNICODE /D UNICODE /Gm- /EHsc /RTC1 /MDd /GS /fp:precise /Zc:wchar_t /Zc:forScope /Zc:inline /Fo"DEBUG\\" /Fd"DEBUG\VC142.PDB" /Gd /TP /analyze- /FC D:\UNIVERSITAT\UPC\CUARTO\VJ\JOC-2D\2DGAME\LOSGOONIES\02-BUBBLE\TEXTURE.CPP
^D:\UNIVERSITAT\UPC\CUARTO\VJ\JOC-2D\2DGAME\LOSGOONIES\02-BUBBLE\TILEMAP.CPP
/c /I..\..\..\LIBS\JSON /I"..\..\..\LIBS\SIMPLE OPENGL IMAGE LIBRARY\SRC" /I..\..\..\LIBS\FREEGLUT\INCLUDE /I"..\..\..\LIBS\GLEW-1.13.0\INCLUDE" /I..\..\..\LIBS\GLM /ZI /JMC /nologo /W3 /WX- /diagnostics:column /Od /Oy- /D WIN32 /D _DEBUG /D _CONSOLE /D _LIB /D _UNICODE /D UNICODE /Gm- /EHsc /RTC1 /MDd /GS /fp:precise /Zc:wchar_t /Zc:forScope /Zc:inline /Fo"DEBUG\\" /Fd"DEBUG\VC142.PDB" /Gd /TP /analyze- /FC D:\UNIVERSITAT\UPC\CUARTO\VJ\JOC-2D\2DGAME\LOSGOONIES\02-BUBBLE\TILEMAP.CPP
^D:\UNIVERSITAT\UPC\CUARTO\VJ\JOC-2D\2DGAME\LOSGOONIES\LOSGOONIES\GAME.CPP
/c /I..\..\..\LIBS\JSON /I"..\..\..\LIBS\SIMPLE OPENGL IMAGE LIBRARY\SRC" /I..\..\..\LIBS\FREEGLUT\INCLUDE /I"..\..\..\LIBS\GLEW-1.13.0\INCLUDE" /I..\..\..\LIBS\GLM /ZI /JMC /nologo /W3 /WX- /diagnostics:column /Od /Oy- /D WIN32 /D _DEBUG /D _CONSOLE /D _LIB /D _UNICODE /D UNICODE /Gm- /EHsc /RTC1 /MDd /GS /fp:precise /Zc:wchar_t /Zc:forScope /Zc:inline /Fo"DEBUG\\" /Fd"DEBUG\VC142.PDB" /Gd /TP /analyze- /FC D:\UNIVERSITAT\UPC\CUARTO\VJ\JOC-2D\2DGAME\LOSGOONIES\LOSGOONIES\GAME.CPP
^D:\UNIVERSITAT\UPC\CUARTO\VJ\JOC-2D\2DGAME\LOSGOONIES\LOSGOONIES\MAIN.CPP
/c /I..\..\..\LIBS\JSON /I"..\..\..\LIBS\SIMPLE OPENGL IMAGE LIBRARY\SRC" /I..\..\..\LIBS\FREEGLUT\INCLUDE /I"..\..\..\LIBS\GLEW-1.13.0\INCLUDE" /I..\..\..\LIBS\GLM /ZI /JMC /nologo /W3 /WX- /diagnostics:column /Od /Oy- /D WIN32 /D _DEBUG /D _CONSOLE /D _LIB /D _UNICODE /D UNICODE /Gm- /EHsc /RTC1 /MDd /GS /fp:precise /Zc:wchar_t /Zc:forScope /Zc:inline /Fo"DEBUG\\" /Fd"DEBUG\VC142.PDB" /Gd /TP /analyze- /FC D:\UNIVERSITAT\UPC\CUARTO\VJ\JOC-2D\2DGAME\LOSGOONIES\LOSGOONIES\MAIN.CPP
^D:\UNIVERSITAT\UPC\CUARTO\VJ\JOC-2D\2DGAME\LOSGOONIES\LOSGOONIES\PLAYER.CPP
/c /I..\..\..\LIBS\JSON /I"..\..\..\LIBS\SIMPLE OPENGL IMAGE LIBRARY\SRC" /I..\..\..\LIBS\FREEGLUT\INCLUDE /I"..\..\..\LIBS\GLEW-1.13.0\INCLUDE" /I..\..\..\LIBS\GLM /ZI /JMC /nologo /W3 /WX- /diagnostics:column /Od /Oy- /D WIN32 /D _DEBUG /D _CONSOLE /D _LIB /D _UNICODE /D UNICODE /Gm- /EHsc /RTC1 /MDd /GS /fp:precise /Zc:wchar_t /Zc:forScope /Zc:inline /Fo"DEBUG\\" /Fd"DEBUG\VC142.PDB" /Gd /TP /analyze- /FC D:\UNIVERSITAT\UPC\CUARTO\VJ\JOC-2D\2DGAME\LOSGOONIES\LOSGOONIES\PLAYER.CPP
^D:\UNIVERSITAT\UPC\CUARTO\VJ\JOC-2D\2DGAME\LOSGOONIES\LOSGOONIES\SCENE.CPP
/c /I..\..\..\LIBS\JSON /I"..\..\..\LIBS\SIMPLE OPENGL IMAGE LIBRARY\SRC" /I..\..\..\LIBS\FREEGLUT\INCLUDE /I"..\..\..\LIBS\GLEW-1.13.0\INCLUDE" /I..\..\..\LIBS\GLM /ZI /JMC /nologo /W3 /WX- /diagnostics:column /Od /Oy- /D WIN32 /D _DEBUG /D _CONSOLE /D _LIB /D _UNICODE /D UNICODE /Gm- /EHsc /RTC1 /MDd /GS /fp:precise /Zc:wchar_t /Zc:forScope /Zc:inline /Fo"DEBUG\\" /Fd"DEBUG\VC142.PDB" /Gd /TP /analyze- /FC D:\UNIVERSITAT\UPC\CUARTO\VJ\JOC-2D\2DGAME\LOSGOONIES\LOSGOONIES\SCENE.CPP
^D:\UNIVERSITAT\UPC\CUARTO\VJ\JOC-2D\2DGAME\LOSGOONIES\LOSGOONIES\SHADER.CPP
/c /I..\..\..\LIBS\JSON /I"..\..\..\LIBS\SIMPLE OPENGL IMAGE LIBRARY\SRC" /I..\..\..\LIBS\FREEGLUT\INCLUDE /I"..\..\..\LIBS\GLEW-1.13.0\INCLUDE" /I..\..\..\LIBS\GLM /ZI /JMC /nologo /W3 /WX- /diagnostics:column /Od /Oy- /D WIN32 /D _DEBUG /D _CONSOLE /D _LIB /D _UNICODE /D UNICODE /Gm- /EHsc /RTC1 /MDd /GS /fp:precise /Zc:wchar_t /Zc:forScope /Zc:inline /Fo"DEBUG\\" /Fd"DEBUG\VC142.PDB" /Gd /TP /analyze- /FC D:\UNIVERSITAT\UPC\CUARTO\VJ\JOC-2D\2DGAME\LOSGOONIES\LOSGOONIES\SHADER.CPP
^D:\UNIVERSITAT\UPC\CUARTO\VJ\JOC-2D\2DGAME\LOSGOONIES\LOSGOONIES\SHADERPROGRAM.CPP
/c /I..\..\..\LIBS\JSON /I"..\..\..\LIBS\SIMPLE OPENGL IMAGE LIBRARY\SRC" /I..\..\..\LIBS\FREEGLUT\INCLUDE /I"..\..\..\LIBS\GLEW-1.13.0\INCLUDE" /I..\..\..\LIBS\GLM /ZI /JMC /nologo /W3 /WX- /diagnostics:column /Od /Oy- /D WIN32 /D _DEBUG /D _CONSOLE /D _LIB /D _UNICODE /D UNICODE /Gm- /EHsc /RTC1 /MDd /GS /fp:precise /Zc:wchar_t /Zc:forScope /Zc:inline /Fo"DEBUG\\" /Fd"DEBUG\VC142.PDB" /Gd /TP /analyze- /FC D:\UNIVERSITAT\UPC\CUARTO\VJ\JOC-2D\2DGAME\LOSGOONIES\LOSGOONIES\SHADERPROGRAM.CPP
^D:\UNIVERSITAT\UPC\CUARTO\VJ\JOC-2D\2DGAME\LOSGOONIES\LOSGOONIES\SPRITE.CPP
/c /I..\..\..\LIBS\JSON /I"..\..\..\LIBS\SIMPLE OPENGL IMAGE LIBRARY\SRC" /I..\..\..\LIBS\FREEGLUT\INCLUDE /I"..\..\..\LIBS\GLEW-1.13.0\INCLUDE" /I..\..\..\LIBS\GLM /ZI /JMC /nologo /W3 /WX- /diagnostics:column /Od /Oy- /D WIN32 /D _DEBUG /D _CONSOLE /D _LIB /D _UNICODE /D UNICODE /Gm- /EHsc /RTC1 /MDd /GS /fp:precise /Zc:wchar_t /Zc:forScope /Zc:inline /Fo"DEBUG\\" /Fd"DEBUG\VC142.PDB" /Gd /TP /analyze- /FC D:\UNIVERSITAT\UPC\CUARTO\VJ\JOC-2D\2DGAME\LOSGOONIES\LOSGOONIES\SPRITE.CPP
^D:\UNIVERSITAT\UPC\CUARTO\VJ\JOC-2D\2DGAME\LOSGOONIES\LOSGOONIES\TEXTURE.CPP
/c /I..\..\..\LIBS\JSON /I"..\..\..\LIBS\SIMPLE OPENGL IMAGE LIBRARY\SRC" /I..\..\..\LIBS\FREEGLUT\INCLUDE /I"..\..\..\LIBS\GLEW-1.13.0\INCLUDE" /I..\..\..\LIBS\GLM /ZI /JMC /nologo /W3 /WX- /diagnostics:column /Od /Oy- /D WIN32 /D _DEBUG /D _CONSOLE /D _LIB /D _UNICODE /D UNICODE /Gm- /EHsc /RTC1 /MDd /GS /fp:precise /Zc:wchar_t /Zc:forScope /Zc:inline /Fo"DEBUG\\" /Fd"DEBUG\VC142.PDB" /Gd /TP /analyze- /FC D:\UNIVERSITAT\UPC\CUARTO\VJ\JOC-2D\2DGAME\LOSGOONIES\LOSGOONIES\TEXTURE.CPP
^D:\UNIVERSITAT\UPC\CUARTO\VJ\JOC-2D\2DGAME\LOSGOONIES\LOSGOONIES\TILEMAP.CPP
/c /I..\..\..\LIBS\JSON /I"..\..\..\LIBS\SIMPLE OPENGL IMAGE LIBRARY\SRC" /I..\..\..\LIBS\FREEGLUT\INCLUDE /I"..\..\..\LIBS\GLEW-1.13.0\INCLUDE" /I..\..\..\LIBS\GLM /ZI /JMC /nologo /W3 /WX- /diagnostics:column /Od /Oy- /D WIN32 /D _DEBUG /D _CONSOLE /D _LIB /D _UNICODE /D UNICODE /Gm- /EHsc /RTC1 /MDd /GS /fp:precise /Zc:wchar_t /Zc:forScope /Zc:inline /Fo"DEBUG\\" /Fd"DEBUG\VC142.PDB" /Gd /TP /analyze- /FC D:\UNIVERSITAT\UPC\CUARTO\VJ\JOC-2D\2DGAME\LOSGOONIES\LOSGOONIES\TILEMAP.CPP
^D:\UNIVERSITAT\UPC\CUARTO\VJ\2D-LOSGOONIES\2DGAME\LOSGOONIES\LOSGOONIES\SHADER.CPP
/c /I..\..\..\LIBS\JSON /I"..\..\..\LIBS\SIMPLE OPENGL IMAGE LIBRARY\SRC" /I..\..\..\LIBS\FREEGLUT\INCLUDE /I"..\..\..\LIBS\GLEW-1.13.0\INCLUDE" /I..\..\..\LIBS\GLM /ZI /JMC /nologo /W3 /WX- /diagnostics:column /Od /Oy- /D WIN32 /D _DEBUG /D _CONSOLE /D _LIB /D _UNICODE /D UNICODE /Gm- /EHsc /RTC1 /MDd /GS /fp:precise /Zc:wchar_t /Zc:forScope /Zc:inline /Fo"DEBUG\\" /Fd"DEBUG\VC142.PDB" /Gd /TP /analyze- /FC D:\UNIVERSITAT\UPC\CUARTO\VJ\2D-LOSGOONIES\2DGAME\LOSGOONIES\LOSGOONIES\SHADER.CPP
^D:\UNIVERSITAT\UPC\CUARTO\VJ\2D-LOSGOONIES\2DGAME\LOSGOONIES\LOSGOONIES\SHADERPROGRAM.CPP
/c /I..\..\..\LIBS\JSON /I"..\..\..\LIBS\SIMPLE OPENGL IMAGE LIBRARY\SRC" /I..\..\..\LIBS\FREEGLUT\INCLUDE /I"..\..\..\LIBS\GLEW-1.13.0\INCLUDE" /I..\..\..\LIBS\GLM /ZI /JMC /nologo /W3 /WX- /diagnostics:column /Od /Oy- /D WIN32 /D _DEBUG /D _CONSOLE /D _LIB /D _UNICODE /D UNICODE /Gm- /EHsc /RTC1 /MDd /GS /fp:precise /Zc:wchar_t /Zc:forScope /Zc:inline /Fo"DEBUG\\" /Fd"DEBUG\VC142.PDB" /Gd /TP /analyze- /FC D:\UNIVERSITAT\UPC\CUARTO\VJ\2D-LOSGOONIES\2DGAME\LOSGOONIES\LOSGOONIES\SHADERPROGRAM.CPP
^D:\UNIVERSITAT\UPC\CUARTO\VJ\2D-LOSGOONIES\2DGAME\LOSGOONIES\LOSGOONIES\SPRITE.CPP
/c /I..\..\..\LIBS\JSON /I"..\..\..\LIBS\SIMPLE OPENGL IMAGE LIBRARY\SRC" /I..\..\..\LIBS\FREEGLUT\INCLUDE /I"..\..\..\LIBS\GLEW-1.13.0\INCLUDE" /I..\..\..\LIBS\GLM /ZI /JMC /nologo /W3 /WX- /diagnostics:column /Od /Oy- /D WIN32 /D _DEBUG /D _CONSOLE /D _LIB /D _UNICODE /D UNICODE /Gm- /EHsc /RTC1 /MDd /GS /fp:precise /Zc:wchar_t /Zc:forScope /Zc:inline /Fo"DEBUG\\" /Fd"DEBUG\VC142.PDB" /Gd /TP /analyze- /FC D:\UNIVERSITAT\UPC\CUARTO\VJ\2D-LOSGOONIES\2DGAME\LOSGOONIES\LOSGOONIES\SPRITE.CPP
^D:\UNIVERSITAT\UPC\CUARTO\VJ\2D-LOSGOONIES\2DGAME\LOSGOONIES\LOSGOONIES\TEXTURE.CPP
/c /I..\..\..\LIBS\JSON /I"..\..\..\LIBS\SIMPLE OPENGL IMAGE LIBRARY\SRC" /I..\..\..\LIBS\FREEGLUT\INCLUDE /I"..\..\..\LIBS\GLEW-1.13.0\INCLUDE" /I..\..\..\LIBS\GLM /ZI /JMC /nologo /W3 /WX- /diagnostics:column /Od /Oy- /D WIN32 /D _DEBUG /D _CONSOLE /D _LIB /D _UNICODE /D UNICODE /Gm- /EHsc /RTC1 /MDd /GS /fp:precise /Zc:wchar_t /Zc:forScope /Zc:inline /Fo"DEBUG\\" /Fd"DEBUG\VC142.PDB" /Gd /TP /analyze- /FC D:\UNIVERSITAT\UPC\CUARTO\VJ\2D-LOSGOONIES\2DGAME\LOSGOONIES\LOSGOONIES\TEXTURE.CPP
^D:\UNIVERSITAT\UPC\CUARTO\VJ\2D-LOSGOONIES\2DGAME\LOSGOONIES\LOSGOONIES\SCREEN.CPP
/c /I..\..\..\LIBS\JSON /I"..\..\..\LIBS\SIMPLE OPENGL IMAGE LIBRARY\SRC" /I..\..\..\LIBS\FREEGLUT\INCLUDE /I"..\..\..\LIBS\GLEW-1.13.0\INCLUDE" /I..\..\..\LIBS\GLM /ZI /JMC /nologo /W3 /WX- /diagnostics:column /Od /Oy- /D WIN32 /D _DEBUG /D _CONSOLE /D _LIB /D _UNICODE /D UNICODE /Gm- /EHsc /RTC1 /MDd /GS /fp:precise /Zc:wchar_t /Zc:forScope /Zc:inline /Fo"DEBUG\\" /Fd"DEBUG\VC142.PDB" /Gd /TP /analyze- /FC D:\UNIVERSITAT\UPC\CUARTO\VJ\2D-LOSGOONIES\2DGAME\LOSGOONIES\LOSGOONIES\SCREEN.CPP
^D:\UNIVERSITAT\UPC\CUARTO\VJ\2D-LOSGOONIES\2DGAME\LOSGOONIES\LOSGOONIES\GAME.CPP
/c /I..\..\..\LIBS\JSON /I"..\..\..\LIBS\SIMPLE OPENGL IMAGE LIBRARY\SRC" /I..\..\..\LIBS\FREEGLUT\INCLUDE /I"..\..\..\LIBS\GLEW-1.13.0\INCLUDE" /I..\..\..\LIBS\GLM /ZI /JMC /nologo /W3 /WX- /diagnostics:column /Od /Oy- /D WIN32 /D _DEBUG /D _CONSOLE /D _LIB /D _UNICODE /D UNICODE /Gm- /EHsc /RTC1 /MDd /GS /fp:precise /Zc:wchar_t /Zc:forScope /Zc:inline /Fo"DEBUG\\" /Fd"DEBUG\VC142.PDB" /Gd /TP /analyze- /FC D:\UNIVERSITAT\UPC\CUARTO\VJ\2D-LOSGOONIES\2DGAME\LOSGOONIES\LOSGOONIES\GAME.CPP
^D:\UNIVERSITAT\UPC\CUARTO\VJ\2D-LOSGOONIES\2DGAME\LOSGOONIES\LOSGOONIES\PLAYER.CPP
/c /I..\..\..\LIBS\JSON /I"..\..\..\LIBS\SIMPLE OPENGL IMAGE LIBRARY\SRC" /I..\..\..\LIBS\FREEGLUT\INCLUDE /I"..\..\..\LIBS\GLEW-1.13.0\INCLUDE" /I..\..\..\LIBS\GLM /ZI /JMC /nologo /W3 /WX- /diagnostics:column /Od /Oy- /D WIN32 /D _DEBUG /D _CONSOLE /D _LIB /D _UNICODE /D UNICODE /Gm- /EHsc /RTC1 /MDd /GS /fp:precise /Zc:wchar_t /Zc:forScope /Zc:inline /Fo"DEBUG\\" /Fd"DEBUG\VC142.PDB" /Gd /TP /analyze- /FC D:\UNIVERSITAT\UPC\CUARTO\VJ\2D-LOSGOONIES\2DGAME\LOSGOONIES\LOSGOONIES\PLAYER.CPP
^D:\UNIVERSITAT\UPC\CUARTO\VJ\2D-LOSGOONIES\2DGAME\LOSGOONIES\LOSGOONIES\SCENE.CPP
/c /I..\..\..\LIBS\JSON /I"..\..\..\LIBS\SIMPLE OPENGL IMAGE LIBRARY\SRC" /I..\..\..\LIBS\FREEGLUT\INCLUDE /I"..\..\..\LIBS\GLEW-1.13.0\INCLUDE" /I..\..\..\LIBS\GLM /ZI /JMC /nologo /W3 /WX- /diagnostics:column /Od /Oy- /D WIN32 /D _DEBUG /D _CONSOLE /D _LIB /D _UNICODE /D UNICODE /Gm- /EHsc /RTC1 /MDd /GS /fp:precise /Zc:wchar_t /Zc:forScope /Zc:inline /Fo"DEBUG\\" /Fd"DEBUG\VC142.PDB" /Gd /TP /analyze- /FC D:\UNIVERSITAT\UPC\CUARTO\VJ\2D-LOSGOONIES\2DGAME\LOSGOONIES\LOSGOONIES\SCENE.CPP
^D:\UNIVERSITAT\UPC\CUARTO\VJ\2D-LOSGOONIES\2DGAME\LOSGOONIES\LOSGOONIES\MAIN.CPP
/c /I..\..\..\LIBS\JSON /I"..\..\..\LIBS\SIMPLE OPENGL IMAGE LIBRARY\SRC" /I..\..\..\LIBS\FREEGLUT\INCLUDE /I"..\..\..\LIBS\GLEW-1.13.0\INCLUDE" /I..\..\..\LIBS\GLM /ZI /JMC /nologo /W3 /WX- /diagnostics:column /Od /Oy- /D WIN32 /D _DEBUG /D _CONSOLE /D _LIB /D _UNICODE /D UNICODE /Gm- /EHsc /RTC1 /MDd /GS /fp:precise /Zc:wchar_t /Zc:forScope /Zc:inline /Fo"DEBUG\\" /Fd"DEBUG\VC142.PDB" /Gd /TP /analyze- /FC D:\UNIVERSITAT\UPC\CUARTO\VJ\2D-LOSGOONIES\2DGAME\LOSGOONIES\LOSGOONIES\MAIN.CPP
^D:\UNIVERSITAT\UPC\CUARTO\VJ\2D-LOSGOONIES\2DGAME\LOSGOONIES\LOSGOONIES\TILEMAP.CPP
/c /I..\..\..\LIBS\JSON /I"..\..\..\LIBS\SIMPLE OPENGL IMAGE LIBRARY\SRC" /I..\..\..\LIBS\FREEGLUT\INCLUDE /I"..\..\..\LIBS\GLEW-1.13.0\INCLUDE" /I..\..\..\LIBS\GLM /ZI /JMC /nologo /W3 /WX- /diagnostics:column /Od /Oy- /D WIN32 /D _DEBUG /D _CONSOLE /D _LIB /D _UNICODE /D UNICODE /Gm- /EHsc /RTC1 /MDd /GS /fp:precise /Zc:wchar_t /Zc:forScope /Zc:inline /Fo"DEBUG\\" /Fd"DEBUG\VC142.PDB" /Gd /TP /analyze- /FC D:\UNIVERSITAT\UPC\CUARTO\VJ\2D-LOSGOONIES\2DGAME\LOSGOONIES\LOSGOONIES\TILEMAP.CPP
