^D:\UNIVERSITAT\UPC\CUARTO\VJ\JOC-2D\2DGAME\LOSGOONIES\LOSGOONIES\DEBUG\GAME.OBJ|D:\UNIVERSITAT\UPC\CUARTO\VJ\JOC-2D\2DGAME\LOSGOONIES\LOSGOONIES\DEBUG\MAIN.OBJ|D:\UNIVERSITAT\UPC\CUARTO\VJ\JOC-2D\2DGAME\LOSGOONIES\LOSGOONIES\DEBUG\PLAYER.OBJ|D:\UNIVERSITAT\UPC\CUARTO\VJ\JOC-2D\2DGAME\LOSGOONIES\LOSGOONIES\DEBUG\SCENE.OBJ|D:\UNIVERSITAT\UPC\CUARTO\VJ\JOC-2D\2DGAME\LOSGOONIES\LOSGOONIES\DEBUG\SHADER.OBJ|D:\UNIVERSITAT\UPC\CUARTO\VJ\JOC-2D\2DGAME\LOSGOONIES\LOSGOONIES\DEBUG\SHADERPROGRAM.OBJ|D:\UNIVERSITAT\UPC\CUARTO\VJ\JOC-2D\2DGAME\LOSGOONIES\LOSGOONIES\DEBUG\SPRITE.OBJ|D:\UNIVERSITAT\UPC\CUARTO\VJ\JOC-2D\2DGAME\LOSGOONIES\LOSGOONIES\DEBUG\TEXTURE.OBJ|D:\UNIVERSITAT\UPC\CUARTO\VJ\JOC-2D\2DGAME\LOSGOONIES\LOSGOONIES\DEBUG\TILEMAP.OBJ
/OUT:"D:\UNIVERSITAT\UPC\CUARTO\VJ\JOC-2D\2DGAME\LOSGOONIES\DEBUG\LOSGOONIES.EXE" /INCREMENTAL /NOLOGO /LIBPATH:"..\..\..\LIBS\SIMPLE OPENGL IMAGE LIBRARY\PROJECTS\VC9\DEBUG" /LIBPATH:..\..\..\LIBS\FREEGLUT\LIB /LIBPATH:"..\..\..\LIBS\GLEW-1.13.0\LIB\RELEASE\WIN32" SOIL.LIB GLEW32.LIB KERNEL32.LIB USER32.LIB GDI32.LIB WINSPOOL.LIB COMDLG32.LIB ADVAPI32.LIB SHELL32.LIB OLE32.LIB OLEAUT32.LIB UUID.LIB ODBC32.LIB ODBCCP32.LIB /MANIFEST /MANIFESTUAC:"level='asInvoker' uiAccess='false'" /manifest:embed /DEBUG:FASTLINK /PDB:"D:\UNIVERSITAT\UPC\CUARTO\VJ\JOC-2D\2DGAME\LOSGOONIES\DEBUG\LOSGOONIES.PDB" /SUBSYSTEM:CONSOLE /TLBID:1 /DYNAMICBASE /NXCOMPAT /IMPLIB:"D:\UNIVERSITAT\UPC\CUARTO\VJ\JOC-2D\2DGAME\LOSGOONIES\DEBUG\LOSGOONIES.LIB" /MACHINE:X86 DEBUG\GAME.OBJ
DEBUG\MAIN.OBJ
DEBUG\PLAYER.OBJ
DEBUG\SCENE.OBJ
DEBUG\SHADER.OBJ
DEBUG\SHADERPROGRAM.OBJ
DEBUG\SPRITE.OBJ
DEBUG\TEXTURE.OBJ
DEBUG\TILEMAP.OBJ
^D:\UNIVERSITAT\UPC\CUARTO\VJ\2D-LOSGOONIES\2DGAME\LOSGOONIES\LOSGOONIES\DEBUG\GAME.OBJ|D:\UNIVERSITAT\UPC\CUARTO\VJ\2D-LOSGOONIES\2DGAME\LOSGOONIES\LOSGOONIES\DEBUG\MAIN.OBJ|D:\UNIVERSITAT\UPC\CUARTO\VJ\2D-LOSGOONIES\2DGAME\LOSGOONIES\LOSGOONIES\DEBUG\PLAYER.OBJ|D:\UNIVERSITAT\UPC\CUARTO\VJ\2D-LOSGOONIES\2DGAME\LOSGOONIES\LOSGOONIES\DEBUG\SCENE.OBJ|D:\UNIVERSITAT\UPC\CUARTO\VJ\2D-LOSGOONIES\2DGAME\LOSGOONIES\LOSGOONIES\DEBUG\SCREEN.OBJ|D:\UNIVERSITAT\UPC\CUARTO\VJ\2D-LOSGOONIES\2DGAME\LOSGOONIES\LOSGOONIES\DEBUG\SHADER.OBJ|D:\UNIVERSITAT\UPC\CUARTO\VJ\2D-LOSGOONIES\2DGAME\LOSGOONIES\LOSGOONIES\DEBUG\SHADERPROGRAM.OBJ|D:\UNIVERSITAT\UPC\CUARTO\VJ\2D-LOSGOONIES\2DGAME\LOSGOONIES\LOSGOONIES\DEBUG\SPRITE.OBJ|D:\UNIVERSITAT\UPC\CUARTO\VJ\2D-LOSGOONIES\2DGAME\LOSGOONIES\LOSGOONIES\DEBUG\TEXTURE.OBJ|D:\UNIVERSITAT\UPC\CUARTO\VJ\2D-LOSGOONIES\2DGAME\LOSGOONIES\LOSGOONIES\DEBUG\TILEMAP.OBJ
/OUT:"D:\UNIVERSITAT\UPC\CUARTO\VJ\2D-LOSGOONIES\2DGAME\LOSGOONIES\DEBUG\LOSGOONIES.EXE" /INCREMENTAL /NOLOGO /LIBPATH:"..\..\..\LIBS\SIMPLE OPENGL IMAGE LIBRARY\PROJECTS\VC9\DEBUG" /LIBPATH:..\..\..\LIBS\FREEGLUT\LIB /LIBPATH:"..\..\..\LIBS\GLEW-1.13.0\LIB\RELEASE\WIN32" SOIL.LIB GLEW32.LIB KERNEL32.LIB USER32.LIB GDI32.LIB WINSPOOL.LIB COMDLG32.LIB ADVAPI32.LIB SHELL32.LIB OLE32.LIB OLEAUT32.LIB UUID.LIB ODBC32.LIB ODBCCP32.LIB /MANIFEST /MANIFESTUAC:"level='asInvoker' uiAccess='false'" /manifest:embed /DEBUG:FASTLINK /PDB:"D:\UNIVERSITAT\UPC\CUARTO\VJ\2D-LOSGOONIES\2DGAME\LOSGOONIES\DEBUG\LOSGOONIES.PDB" /SUBSYSTEM:CONSOLE /TLBID:1 /DYNAMICBASE /NXCOMPAT /IMPLIB:"D:\UNIVERSITAT\UPC\CUARTO\VJ\2D-LOSGOONIES\2DGAME\LOSGOONIES\DEBUG\LOSGOONIES.LIB" /MACHINE:X86 DEBUG\GAME.OBJ
DEBUG\MAIN.OBJ
DEBUG\PLAYER.OBJ
DEBUG\SCENE.OBJ
DEBUG\SCREEN.OBJ
DEBUG\SHADER.OBJ
DEBUG\SHADERPROGRAM.OBJ
DEBUG\SPRITE.OBJ
DEBUG\TEXTURE.OBJ
DEBUG\TILEMAP.OBJ
